^C:\USERS\HP\SOURCE\REPOS\14.4\X64\DEBUG\14.4.OBJ
C:\USERS\HP\SOURCE\REPOS\14.4\X64\DEBUG\14.4.EXE
C:\USERS\HP\SOURCE\REPOS\14.4\X64\DEBUG\14.4.ILK
C:\USERS\HP\SOURCE\REPOS\14.4\X64\DEBUG\14.4.PDB
